[gd_scene load_steps=4 format=2]

[ext_resource path="res://Main.gd" type="Script" id=1]
[ext_resource path="res://addons/nakama-client/NakamaRestClient.gd" type="Script" id=2]
[ext_resource path="res://addons/nakama-client/icon.png" type="Texture" id=3]

[node name="Main" type="Node2D"]
script = ExtResource( 1 )

[node name="NakamaRestClient" type="Node" parent="."]
script = ExtResource( 2 )
__meta__ = {
"_editor_icon": ExtResource( 3 )
}
